solid ConcaveCube
facet normal 1.0 0.0 0.0
  outer loop
    vertex 30.0 30.0 0.0
    vertex 30.0 0.0 10.0
    vertex 30.0 0.0 0.0
  endloop
endfacet
facet normal 1.0 0.0 0.0
  outer loop
    vertex 30.0 0.0 10.0
    vertex 30.0 30.0 0.0
    vertex 30.0 30.0 10.000000000000002
  endloop
endfacet
facet normal -1.0 0.0 0.0
  outer loop
    vertex 0.0 30.0 30.0
    vertex 0.0 0.0 0.0
    vertex 0.0 0.0 30.0
  endloop
endfacet
facet normal -1.0 0.0 0.0
  outer loop
    vertex 0.0 0.0 0.0
    vertex 0.0 30.0 30.0
    vertex 0.0 30.0 0.0
  endloop
endfacet
facet normal -0.0 1.0 -0.0
  outer loop
    vertex 0.0 30.0 30.0
    vertex 30.0 30.0 20.000000000000004
    vertex 10.000000000000004 30.0 20.000000000000004
  endloop
endfacet
facet normal -0.0 1.0 -0.0
  outer loop
    vertex 30.0 30.0 20.000000000000004
    vertex 0.0 30.0 30.0
    vertex 30.0 30.0 30.0
  endloop
endfacet
facet normal 0.0 0.0 -1.0
  outer loop
    vertex 30.0 30.0 0.0
    vertex 0.0 0.0 0.0
    vertex 0.0 30.0 0.0
  endloop
endfacet
facet normal 0.0 0.0 -1.0
  outer loop
    vertex 0.0 0.0 0.0
    vertex 30.0 30.0 0.0
    vertex 30.0 0.0 0.0
  endloop
endfacet
facet normal 0.0 0.0 1.0
  outer loop
    vertex 30.0 0.0 30.0
    vertex 0.0 30.0 30.0
    vertex 0.0 0.0 30.0
  endloop
endfacet
facet normal 0.0 0.0 1.0
  outer loop
    vertex 0.0 30.0 30.0
    vertex 30.0 0.0 30.0
    vertex 30.0 30.0 30.0
  endloop
endfacet
facet normal 0.0 -4.699944137579829e-17 1.0
  outer loop
    vertex 30.0 0.0 10.0
    vertex 10.000000000000004 30.0 10.000000000000002
    vertex 10.000000000000004 0.0 10.0
  endloop
endfacet
facet normal 0.0 -4.699944137579829e-17 1.0
  outer loop
    vertex 10.000000000000004 30.0 10.000000000000002
    vertex 30.0 0.0 10.0
    vertex 30.0 30.0 10.000000000000002
  endloop
endfacet
facet normal -0.0 -0.0 -1.0
  outer loop
    vertex 30.0 30.0 20.000000000000004
    vertex 10.000000000000004 0.0 20.000000000000004
    vertex 10.000000000000004 30.0 20.000000000000004
  endloop
endfacet
facet normal -0.0 -0.0 -1.0
  outer loop
    vertex 10.000000000000004 0.0 20.000000000000004
    vertex 30.0 30.0 20.000000000000004
    vertex 30.0 0.0 20.000000000000004
  endloop
endfacet
facet normal 1.0 0.0 0.0
  outer loop
    vertex 30.0 30.0 20.000000000000004
    vertex 30.0 0.0 30.0
    vertex 30.0 0.0 20.000000000000004
  endloop
endfacet
facet normal 1.0 0.0 0.0
  outer loop
    vertex 30.0 0.0 30.0
    vertex 30.0 30.0 20.000000000000004
    vertex 30.0 30.0 30.0
  endloop
endfacet
facet normal 0.0 -1.0 0.0
  outer loop
    vertex 30.0 0.0 30.0
    vertex 10.000000000000004 0.0 20.000000000000004
    vertex 30.0 0.0 20.000000000000004
  endloop
endfacet
facet normal 0.0 -1.0 0.0
  outer loop
    vertex 10.000000000000004 0.0 20.000000000000004
    vertex 30.0 0.0 30.0
    vertex 0.0 0.0 30.0
  endloop
endfacet
facet normal 0.0 -1.0 0.0
  outer loop
    vertex 30.0 0.0 10.0
    vertex 0.0 0.0 0.0
    vertex 30.0 0.0 0.0
  endloop
endfacet
facet normal 0.0 -1.0 0.0
  outer loop
    vertex 0.0 0.0 0.0
    vertex 30.0 0.0 10.0
    vertex 10.000000000000004 0.0 10.0
  endloop
endfacet
facet normal -0.0 1.0 -0.0
  outer loop
    vertex 0.0 30.0 30.0
    vertex 10.000000000000004 30.0 10.000000000000002
    vertex 0.0 30.0 0.0
  endloop
endfacet
facet normal -0.0 1.0 -0.0
  outer loop
    vertex 10.000000000000004 30.0 10.000000000000002
    vertex 0.0 30.0 30.0
    vertex 10.000000000000004 30.0 20.000000000000004
  endloop
endfacet
facet normal -0.0 1.0 -0.0
  outer loop
    vertex 10.000000000000004 30.0 10.000000000000002
    vertex 30.0 30.0 0.0
    vertex 0.0 30.0 0.0
  endloop
endfacet
facet normal -0.0 1.0 -0.0
  outer loop
    vertex 30.0 30.0 0.0
    vertex 10.000000000000004 30.0 10.000000000000002
    vertex 30.0 30.0 10.000000000000002
  endloop
endfacet
facet normal 0.0 -1.0 0.0
  outer loop
    vertex 10.000000000000004 0.0 10.0
    vertex 0.0 0.0 30.0
    vertex 0.0 0.0 0.0
  endloop
endfacet
facet normal 0.0 -1.0 0.0
  outer loop
    vertex 0.0 0.0 30.0
    vertex 10.000000000000004 0.0 10.0
    vertex 10.000000000000004 0.0 20.000000000000004
  endloop
endfacet
facet normal 1.0 0.0 0.0
  outer loop
    vertex 10.000000000000004 30.0 10.000000000000002
    vertex 10.000000000000004 0.0 20.000000000000004
    vertex 10.000000000000004 0.0 10.0
  endloop
endfacet
facet normal 1.0 0.0 0.0
  outer loop
    vertex 10.000000000000004 0.0 20.000000000000004
    vertex 10.000000000000004 30.0 10.000000000000002
    vertex 10.000000000000004 30.0 20.000000000000004
  endloop
endfacet
endsolid ConcaveCube
