# Alias OBJ Model File
# Exported from SketchUp, (c) 2000-2012 Trimble Navigation Limited
# File units = millimeters

mtllib 100Cube.mtl

g Mesh1 Model

usemtl FrontColor
v 200 100 -200
vt -7.87402 7.87402
vn 0 -1 -0
v 200 100 -100
vt -7.87402 3.93701
v 100 100 -100
vt -3.93701 3.93701
v 100 100 -200
vt -3.93701 7.87402
f 1/1/1 2/2/1 3/3/1 4/4/1 

vt 3.93701 3.93701
vn 1 0 -0
vt 7.87402 3.93701
v 200 200 -200
vt 7.87402 7.87402
v 200 200 -100
vt 3.93701 7.87402
f 2/5/2 1/6/2 5/7/2 6/8/2 

vn 0 0 -1
v 100 200 -200
f 1/2/3 4/3/3 7/4/3 5/1/3 

vn -1 0 -0
v 100 200 -100
f 4/2/4 3/3/4 8/4/4 7/1/4 

vn 0 0 1
f 3/5/5 2/6/5 6/7/5 8/8/5 

vn 0 1 -0
f 6/6/6 5/7/6 7/8/6 8/5/6 

