# Alias OBJ Model File
# Exported from SketchUp, (c) 2000-2012 Trimble Navigation Limited
# File units = millimeters

mtllib 100NegativeCube.mtl

g Mesh1 Model

usemtl FrontColor
v -100 100 100
vt 3.93701 -3.93701
vn 0 -1 -0
v -100 100 200
vt 3.93701 -7.87402
v -200 100 200
vt 7.87402 -7.87402
v -200 100 100
vt 7.87402 -3.93701
f 1/1/1 2/2/1 3/3/1 4/4/1 

vt -7.87402 3.93701
vn 1 0 -0
vt -3.93701 3.93701
v -100 200 100
vt -3.93701 7.87402
v -100 200 200
vt -7.87402 7.87402
f 2/5/2 1/6/2 5/7/2 6/8/2 

vt 3.93701 3.93701
vn 0 0 -1
vt 7.87402 3.93701
v -200 200 100
vt 7.87402 7.87402
vt 3.93701 7.87402
f 1/9/3 4/10/3 7/11/3 5/12/3 

vn -1 0 -0
v -200 200 200
f 4/9/4 3/10/4 8/11/4 7/12/4 

vn 0 0 1
f 3/5/5 2/6/5 6/7/5 8/8/5 

vt -3.93701 -7.87402
vn 0 1 -0
vt -3.93701 -3.93701
vt -7.87402 -3.93701
vt -7.87402 -7.87402
f 6/13/6 5/14/6 7/15/6 8/16/6 

