solid tetrahedron100
facet normal -0.0 1.0 -0.0
  outer loop
    vertex 100.0 100.0 100.0
    vertex 100.0 100.0 0.0
    vertex 0.0 100.0 0.0
  endloop
endfacet
facet normal -0.5773502691896258 -0.5773502691896258 0.5773502691896258
  outer loop
    vertex 0.0 100.0 0.0
    vertex 100.0 0.0 0.0
    vertex 100.0 100.0 100.0
  endloop
endfacet
facet normal 0.0 0.0 -1.0
  outer loop
    vertex 100.0 0.0 0.0
    vertex 0.0 100.0 0.0
    vertex 100.0 100.0 0.0
  endloop
endfacet
facet normal 1.0 -0.0 -0.0
  outer loop
    vertex 100.0 100.0 100.0
    vertex 100.0 0.0 0.0
    vertex 100.0 100.0 0.0
  endloop
endfacet
endsolid tetrahedron100
